{
	"process_id" : 15926,
	"version" : "2019.3.7f1",
	"app_path" : "/Applications/Unity/Hub/Editor/2019.3.7f1/Unity.app",
	"app_contents_path" : "/Applications/Unity/Hub/Editor/2019.3.7f1/Unity.app/Contents"
}